0.png,0
1.png,0
2.png,0
3.png,0
4.png,0
5.png,0
6.png,0
7.png,0
8.png,0
9.png,0
10.png,0
11.png,0
12.png,0
13.png,0
14.png,0
15.png,0
16.png,0
17.png,0
18.png,0
19.png,0
20.png,0
21.png,0
22.png,0
23.png,0
24.png,0
25.png,0
26.png,0
27.png,0
28.png,0
29.png,0
30.png,0
31.png,0
32.png,0
33.png,0
34.png,0
35.png,0
36.png,0
37.png,0
38.png,0
39.png,0
40.png,0
41.png,0
42.png,0
43.png,0
44.png,0
45.png,0
46.png,0
47.png,0
48.png,0
49.png,0
50.png,0
51.png,0
52.png,0
53.png,0
54.png,0
55.png,0
56.png,0
57.png,0
58.png,0
59.png,0
60.png,0
61.png,0
62.png,0
63.png,0
64.png,0
65.png,0
66.png,0
67.png,0
68.png,0
69.png,0
70.png,0
71.png,0
72.png,0
73.png,0
74.png,0
75.png,0
76.png,0
77.png,0
78.png,0
79.png,0
80.png,0
81.png,0
82.png,0
83.png,0
84.png,0
85.png,0
86.png,0
87.png,0
88.png,0
89.png,0
90.png,0
91.png,0
92.png,0
93.png,0
94.png,0
95.png,0
96.png,0
97.png,0
98.png,0
99.png,0
100.png,0
101.png,0
102.png,0
103.png,0
104.png,0
105.png,0
106.png,0
107.png,0
108.png,0
109.png,0
110.png,0
111.png,0
112.png,0
113.png,0
114.png,0
115.png,0
116.png,0
117.png,0
118.png,0
119.png,0
120.png,0
121.png,0
122.png,0
123.png,0
124.png,0
125.png,0
126.png,0
127.png,0
128.png,0
129.png,0
130.png,0
131.png,0
132.png,0
133.png,0
134.png,0
135.png,0
136.png,0
137.png,0
138.png,0
139.png,0
140.png,0
141.png,0
142.png,0
143.png,0
144.png,0
145.png,0
146.png,0
147.png,0
148.png,0
149.png,0
150.png,0
151.png,0
152.png,0
153.png,0
154.png,0
155.png,0
156.png,0
157.png,0
158.png,0
159.png,0
160.png,0
161.png,0
162.png,0
163.png,0
164.png,0
165.png,0
166.png,0
167.png,0
168.png,0
169.png,0
170.png,0
171.png,0
172.png,0
173.png,0
174.png,0
175.png,0
176.png,0
177.png,0
178.png,0
179.png,0
180.png,0
181.png,0
182.png,0
183.png,0
184.png,0
185.png,0
186.png,0
187.png,0
188.png,0
189.png,0
190.png,0
191.png,0
192.png,0
193.png,0
194.png,0
195.png,0
196.png,0
197.png,0
198.png,0
199.png,0
200.png,0
201.png,0
202.png,0
203.png,0
204.png,0
205.png,0
206.png,0
207.png,0
208.png,0
209.png,0
210.png,0
211.png,0
212.png,0
213.png,0
214.png,0
215.png,0
216.png,0
217.png,0
218.png,0
219.png,0
220.png,0
221.png,0
222.png,0
223.png,0
224.png,0
225.png,0
226.png,0
227.png,0
228.png,0
229.png,0
230.png,0
231.png,0
232.png,0
233.png,0
234.png,0
235.png,0
236.png,0
237.png,0
238.png,0
239.png,0
240.png,0
241.png,0
242.png,0
243.png,0
244.png,0
245.png,0
246.png,0
247.png,0
248.png,0
249.png,0
250.png,0
251.png,0
252.png,0
253.png,0
254.png,0
255.png,0
256.png,0
257.png,0
258.png,0
259.png,0
260.png,0
261.png,0
262.png,0
263.png,0
264.png,0
265.png,0
266.png,0
267.png,0
268.png,0
269.png,0
270.png,0
271.png,0
272.png,0
273.png,0
274.png,0
275.png,0
276.png,0
277.png,0
278.png,0
279.png,0
280.png,0
281.png,0
282.png,0
283.png,0
284.png,0
285.png,0
286.png,0
287.png,0
288.png,0
289.png,0
290.png,0
291.png,0
292.png,0
293.png,0
294.png,0
295.png,0
296.png,0
297.png,0
298.png,0
299.png,0
300.png,0
301.png,0
302.png,0
303.png,0
304.png,0
305.png,0
306.png,0
307.png,0
308.png,0
309.png,0
310.png,0
311.png,0
312.png,0
313.png,0
314.png,0
315.png,0
316.png,0
317.png,0
318.png,0
319.png,0
320.png,0
321.png,0
322.png,0
323.png,0
324.png,0
325.png,0
326.png,0
327.png,0
328.png,0
329.png,0
330.png,0
331.png,0
332.png,0
333.png,0
334.png,0
335.png,0
336.png,0
337.png,0
338.png,0
339.png,0
340.png,0
341.png,0
342.png,0
343.png,0
344.png,0
345.png,0
346.png,0
347.png,0
348.png,0
349.png,0
350.png,0
351.png,0
352.png,0
353.png,0
354.png,0
355.png,0
356.png,0
357.png,0
358.png,0
359.png,0
360.png,0
361.png,0
362.png,0
363.png,0
364.png,0
365.png,0
366.png,0
367.png,0
368.png,0
369.png,0
370.png,0
371.png,0
372.png,0
373.png,0
374.png,0
375.png,0
376.png,0
377.png,0
378.png,0
379.png,0
380.png,0
381.png,0
382.png,0
383.png,0
384.png,0
385.png,0
386.png,0
387.png,0
388.png,0
389.png,0
390.png,0
391.png,0
392.png,0
393.png,0
394.png,0
395.png,0
396.png,0
397.png,0
398.png,0
399.png,0
400.png,0
401.png,0
402.png,0
403.png,0
404.png,0
405.png,0
406.png,0
407.png,0
408.png,0
409.png,0
410.png,0
411.png,0
412.png,0
413.png,0
414.png,0
415.png,0
416.png,0
417.png,0
418.png,0
419.png,0
420.png,0
421.png,0
422.png,0
423.png,0
424.png,0
425.png,0
426.png,0
427.png,0
428.png,0
429.png,0
430.png,0
431.png,0
432.png,0
433.png,0
434.png,0
435.png,0
436.png,0
437.png,0
438.png,0
439.png,0
440.png,0
441.png,0
442.png,0
443.png,0
444.png,0
445.png,0
446.png,0
447.png,0
448.png,0
449.png,0
450.png,0
451.png,0
452.png,0
453.png,0
454.png,0
455.png,0
456.png,0
457.png,0
458.png,0
459.png,0
460.png,0
461.png,0
462.png,0
463.png,0
464.png,0
465.png,0
466.png,0
467.png,0
468.png,0
469.png,0
470.png,0
471.png,0
472.png,0
473.png,0
474.png,0
475.png,0
476.png,0
477.png,0
478.png,0
479.png,0
480.png,0
481.png,0
482.png,0
483.png,0
484.png,0
485.png,0
486.png,0
487.png,0
488.png,0
489.png,0
490.png,0
491.png,0
492.png,0
493.png,0
494.png,0
495.png,0
496.png,0
497.png,0
498.png,0
499.png,0
500.png,0
501.png,0
502.png,0
503.png,0
504.png,0
505.png,0
506.png,0
507.png,0
508.png,0
509.png,0
510.png,0
511.png,0
512.png,0
513.png,0
514.png,0
515.png,0
516.png,0
517.png,0
518.png,0
519.png,0
520.png,0
521.png,0
522.png,0
523.png,0
524.png,0
525.png,0
526.png,0
527.png,0
528.png,0
529.png,0
530.png,0
531.png,0
532.png,0
533.png,0
534.png,0
535.png,0
536.png,0
537.png,0
538.png,0
539.png,0
540.png,0
541.png,0
542.png,0
543.png,0
544.png,0
545.png,0
546.png,0
547.png,0
548.png,0
549.png,0
550.png,0
551.png,0
552.png,0
553.png,0
554.png,0
555.png,0
556.png,0
557.png,0
558.png,0
559.png,0
560.png,0
561.png,0
562.png,0
563.png,0
564.png,0
565.png,0
566.png,0
567.png,0
568.png,0
569.png,0
570.png,0
571.png,0
572.png,0
573.png,0
574.png,0
575.png,0
576.png,0
577.png,0
578.png,0
579.png,0
580.png,0
581.png,0
582.png,0
583.png,0
584.png,0
585.png,0
586.png,0
587.png,0
588.png,0
589.png,0
590.png,0
591.png,0
592.png,0
593.png,0
594.png,0
595.png,0
596.png,0
597.png,0
598.png,0
599.png,0
600.png,0
601.png,0
602.png,0
603.png,0
604.png,0
605.png,0
606.png,0
607.png,0
608.png,0
609.png,0
610.png,0
611.png,0
612.png,0
613.png,0
614.png,0
615.png,0
616.png,0
617.png,0
618.png,0
619.png,0
620.png,0
621.png,0
622.png,0
623.png,0
624.png,0
625.png,0
626.png,0
627.png,0
628.png,0
629.png,0
630.png,0
631.png,0
632.png,0
633.png,0
634.png,0
635.png,0
636.png,0
637.png,0
638.png,0
639.png,0
640.png,0
641.png,0
642.png,0
643.png,0
644.png,0
645.png,0
646.png,0
647.png,0
648.png,0
649.png,0
650.png,0
651.png,0
652.png,0
653.png,0
654.png,0
655.png,0
656.png,0
657.png,0
658.png,0
659.png,0
660.png,0
661.png,0
662.png,0
663.png,0
664.png,0
665.png,0
666.png,0
667.png,0
668.png,0
669.png,0
670.png,0
671.png,0
672.png,0
673.png,0
674.png,0
675.png,0
676.png,0
677.png,0
678.png,0
679.png,0
680.png,0
681.png,0
682.png,0
683.png,0
684.png,0
685.png,0
686.png,0
687.png,0
688.png,0
689.png,0
690.png,0
691.png,0
692.png,0
693.png,0
694.png,0
695.png,0
696.png,0
697.png,0
698.png,0
699.png,0
700.png,0
701.png,0
702.png,0
703.png,0
704.png,0
705.png,0
706.png,0
707.png,0
708.png,0
709.png,0
710.png,0
711.png,0
712.png,0
713.png,0
714.png,0
715.png,0
716.png,0
717.png,0
718.png,0
719.png,0
720.png,0
721.png,0
722.png,0
723.png,0
724.png,0
725.png,0
726.png,0
727.png,0
728.png,0
729.png,0
730.png,0
731.png,0
732.png,0
733.png,0
734.png,0
735.png,0
736.png,0
737.png,0
738.png,0
739.png,0
740.png,0
741.png,0
742.png,0
743.png,0
744.png,0
745.png,0
746.png,0
747.png,0
748.png,0
749.png,0
750.png,0
751.png,0
752.png,0
753.png,0
754.png,0
755.png,0
756.png,0
757.png,0
758.png,0
759.png,0
760.png,0
761.png,0
762.png,0
763.png,0
764.png,0
765.png,0
766.png,0
767.png,0
768.png,0
769.png,0
770.png,0
771.png,0
772.png,0
773.png,0
774.png,0
775.png,0
776.png,0
777.png,0
778.png,0
779.png,0
780.png,0
781.png,0
782.png,0
783.png,0
784.png,0
785.png,0
786.png,0
787.png,0
788.png,0
789.png,0
790.png,0
791.png,0
792.png,0
793.png,0
794.png,0
795.png,0
796.png,0
797.png,0
798.png,0
799.png,0
800.png,0
801.png,0
802.png,0
803.png,0
804.png,0
805.png,0
806.png,0
807.png,0
808.png,0
809.png,0
810.png,0
811.png,0
812.png,0
813.png,0
814.png,0
815.png,0
816.png,0
817.png,0
818.png,0
819.png,0
820.png,0
821.png,0
822.png,0
823.png,0
824.png,0
825.png,0
826.png,0
827.png,0
828.png,0
829.png,0
830.png,0
831.png,0
832.png,0
833.png,0
834.png,0
835.png,0
836.png,0
837.png,1
838.png,1
839.png,1
840.png,1
841.png,1
842.png,1
843.png,1
844.png,1
845.png,1
846.png,1
847.png,1
848.png,1
849.png,1
850.png,1
851.png,1
852.png,1
853.png,1
854.png,1
855.png,1
856.png,1
857.png,1
858.png,1
859.png,1
860.png,1
861.png,1
862.png,1
863.png,1
864.png,1
865.png,1
866.png,1
867.png,1
868.png,1
869.png,1
870.png,1
871.png,1
872.png,1
873.png,1
874.png,1
875.png,1
876.png,1
877.png,1
878.png,1
879.png,1
880.png,1
881.png,1
882.png,1
883.png,1
884.png,1
885.png,1
886.png,1
887.png,1
888.png,1
889.png,1
890.png,1
891.png,1
892.png,1
893.png,1
894.png,1
895.png,1
896.png,1
897.png,1
898.png,1
899.png,1
900.png,1
901.png,1
902.png,1
903.png,1
904.png,1
905.png,1
906.png,1
907.png,1
908.png,1
909.png,1
910.png,1
911.png,1
912.png,1
913.png,1
914.png,1
915.png,1
916.png,1
917.png,1
918.png,1
919.png,1
920.png,1
921.png,1
922.png,1
923.png,1
924.png,1
925.png,1
926.png,1
927.png,1
928.png,1
929.png,1
930.png,1
931.png,1
932.png,1
933.png,1
934.png,1
935.png,1
936.png,1
937.png,1
938.png,1
939.png,1
940.png,1
941.png,1
942.png,1
943.png,1
944.png,1
945.png,1
946.png,1
947.png,1
948.png,1
949.png,1
950.png,1
951.png,1
952.png,1
953.png,1
954.png,1
955.png,1
956.png,1
957.png,1
958.png,1
959.png,1
960.png,1
961.png,1
962.png,1
963.png,1
964.png,1
965.png,1
966.png,1
967.png,1
968.png,1
969.png,1
970.png,1
971.png,1
972.png,1
973.png,1
974.png,1
975.png,1
976.png,1
977.png,1
978.png,1
979.png,1
980.png,1
981.png,1
982.png,1
983.png,1
984.png,1
985.png,1
986.png,1
987.png,1
988.png,1
989.png,1
990.png,1
991.png,1
992.png,1
993.png,1
994.png,1
995.png,1
996.png,1
997.png,1
998.png,1
999.png,1
1000.png,1
1001.png,1
1002.png,1
1003.png,1
1004.png,1
1005.png,1
1006.png,1
1007.png,1
1008.png,1
1009.png,1
1010.png,1
1011.png,1
1012.png,1
1013.png,1
1014.png,1
1015.png,1
1016.png,1
1017.png,1
1018.png,1
1019.png,1
1020.png,1
1021.png,1
1022.png,1
1023.png,1
1024.png,1
1025.png,1
1026.png,1
1027.png,1
1028.png,1
1029.png,1
1030.png,1
1031.png,1
1032.png,1
1033.png,1
1034.png,1
1035.png,1
1036.png,1
1037.png,1
1038.png,1
1039.png,1
1040.png,1
1041.png,1
1042.png,1
1043.png,1
1044.png,1
1045.png,1
1046.png,1
1047.png,1
1048.png,1
1049.png,1
1050.png,1
1051.png,1
1052.png,1
1053.png,1
1054.png,1
1055.png,1
1056.png,1
1057.png,1
1058.png,1
1059.png,1
1060.png,1
1061.png,1
1062.png,1
1063.png,1
1064.png,1
1065.png,1
1066.png,1
1067.png,1
1068.png,1
1069.png,1
1070.png,1
1071.png,1
1072.png,1
1073.png,1
1074.png,1
1075.png,1
1076.png,1
1077.png,1
1078.png,1
1079.png,1
1080.png,1
1081.png,1
1082.png,1
1083.png,1
1084.png,1
1085.png,1
1086.png,1
1087.png,1
1088.png,1
1089.png,1
1090.png,1
1091.png,1
1092.png,1
1093.png,1
1094.png,1
1095.png,1
1096.png,1
1097.png,1
1098.png,1
1099.png,1
1100.png,1
1101.png,1
1102.png,1
1103.png,1
1104.png,1
1105.png,1
1106.png,1
1107.png,1
1108.png,1
1109.png,1
1110.png,1
1111.png,1
1112.png,1
1113.png,1
1114.png,1
1115.png,1
1116.png,1
1117.png,1
1118.png,1
1119.png,1
1120.png,1
1121.png,1
1122.png,1
1123.png,1
1124.png,1
1125.png,1
1126.png,1
1127.png,1
1128.png,1
1129.png,1
1130.png,1
1131.png,1
1132.png,1
1133.png,1
1134.png,1
1135.png,1
1136.png,1
1137.png,1
1138.png,1
1139.png,1
1140.png,1
1141.png,1
1142.png,1
1143.png,1
1144.png,1
1145.png,1
1146.png,1
1147.png,1
1148.png,1
1149.png,1
1150.png,1
1151.png,1
1152.png,1
1153.png,1
1154.png,1
1155.png,1
1156.png,1
1157.png,1
1158.png,1
1159.png,1
1160.png,1
1161.png,1
1162.png,1
1163.png,1
1164.png,1
1165.png,1
1166.png,1
1167.png,1
1168.png,1
1169.png,1
1170.png,1
1171.png,1
1172.png,1
1173.png,1
1174.png,1
1175.png,1
1176.png,1
1177.png,1
1178.png,1
1179.png,1
1180.png,1
1181.png,1
1182.png,1
1183.png,1
1184.png,1
1185.png,1
1186.png,1
1187.png,1
1188.png,1
1189.png,1
1190.png,1
1191.png,1
1192.png,1
1193.png,1
1194.png,1
1195.png,1
1196.png,1
1197.png,1
1198.png,1
1199.png,1
1200.png,1
1201.png,1
1202.png,1
1203.png,1
1204.png,1
1205.png,1
1206.png,1
1207.png,1
1208.png,1
1209.png,1
1210.png,1
1211.png,1
1212.png,1
1213.png,1
1214.png,1
1215.png,1
1216.png,1
1217.png,1
1218.png,1
1219.png,1
1220.png,1
1221.png,1
1222.png,1
1223.png,1
1224.png,1
1225.png,1
1226.png,1
1227.png,1
1228.png,1
1229.png,1
1230.png,1
1231.png,1
1232.png,1
1233.png,1
1234.png,1
1235.png,1
1236.png,1
1237.png,1
1238.png,1
1239.png,1
1240.png,1
1241.png,1
1242.png,1
1243.png,1
1244.png,1
1245.png,1
1246.png,1
1247.png,1
1248.png,1
1249.png,1
1250.png,1
1251.png,1
1252.png,1
1253.png,1
1254.png,1
1255.png,1
1256.png,1
1257.png,1
1258.png,1
1259.png,1
1260.png,1
1261.png,1
1262.png,1
1263.png,1
1264.png,1
1265.png,1
1266.png,1
1267.png,1
1268.png,1
1269.png,1
1270.png,1
1271.png,1
1272.png,1
1273.png,1
1274.png,1
1275.png,1
1276.png,1
1277.png,1
1278.png,1
1279.png,1
1280.png,1
1281.png,1
1282.png,1
1283.png,1
1284.png,1
1285.png,1
1286.png,1
1287.png,1
1288.png,1
1289.png,1
1290.png,1
1291.png,1
1292.png,1
1293.png,1
1294.png,1
1295.png,1
1296.png,1
1297.png,1
1298.png,1
1299.png,1
1300.png,1
1301.png,1
1302.png,1
1303.png,1
1304.png,1
1305.png,1
1306.png,1
1307.png,1
1308.png,1
1309.png,1
1310.png,1
1311.png,1
1312.png,1
1313.png,1
1314.png,1
1315.png,1
1316.png,1
1317.png,1
1318.png,1
1319.png,1
1320.png,1
1321.png,1
1322.png,1
1323.png,1
1324.png,1
1325.png,1
1326.png,1
1327.png,1
1328.png,1
1329.png,1
1330.png,1
1331.png,1
1332.png,1
1333.png,1
1334.png,1
1335.png,1
1336.png,1
1337.png,1
1338.png,1
1339.png,1
1340.png,1
1341.png,1
1342.png,1
1343.png,1
1344.png,1
1345.png,1
1346.png,1
1347.png,1
1348.png,1
1349.png,1
1350.png,1
1351.png,1
1352.png,1
1353.png,1
1354.png,1
1355.png,1
1356.png,1
1357.png,1
1358.png,1
1359.png,1
1360.png,1
1361.png,1
1362.png,1
1363.png,1
1364.png,1
1365.png,1
1366.png,1
1367.png,1
1368.png,1
1369.png,1
1370.png,1
1371.png,1
1372.png,1
1373.png,1
1374.png,1
1375.png,1
1376.png,1
1377.png,1
1378.png,1
1379.png,1
1380.png,1
1381.png,1
1382.png,1
1383.png,1
1384.png,1
1385.png,1
1386.png,1
1387.png,1
1388.png,1
1389.png,1
1390.png,1
1391.png,1
1392.png,1
1393.png,1
1394.png,1
1395.png,1
1396.png,1
1397.png,1
1398.png,1
1399.png,1
1400.png,1
1401.png,1
1402.png,1
1403.png,1
1404.png,1
1405.png,1
1406.png,1
1407.png,1
1408.png,1
1409.png,1
1410.png,1
1411.png,1
1412.png,1
1413.png,1
1414.png,1
1415.png,1
1416.png,1
1417.png,1
1418.png,1
1419.png,1
1420.png,1
1421.png,1
1422.png,1
1423.png,1
1424.png,1
1425.png,1
1426.png,1
1427.png,1
1428.png,1
1429.png,1
1430.png,1
1431.png,1
1432.png,1
1433.png,1
1434.png,1
1435.png,1
1436.png,1
1437.png,1
1438.png,1
1439.png,1
1440.png,1
1441.png,1
1442.png,1
1443.png,1
1444.png,1
1445.png,1
1446.png,1
1447.png,1
1448.png,1
1449.png,1
1450.png,1
1451.png,1
1452.png,1
1453.png,1
1454.png,1
1455.png,1
1456.png,1
1457.png,1
1458.png,1
1459.png,1
1460.png,1
1461.png,1
1462.png,2
1463.png,2
1464.png,2
1465.png,2
1466.png,2
1467.png,2
1468.png,2
1469.png,2
1470.png,2
1471.png,2
1472.png,2
1473.png,2
1474.png,2
1475.png,2
1476.png,2
1477.png,2
1478.png,2
1479.png,2
1480.png,2
1481.png,2
1482.png,2
1483.png,2
1484.png,2
1485.png,2
1486.png,2
1487.png,2
1488.png,2
1489.png,2
1490.png,2
1491.png,2
1492.png,2
1493.png,2
1494.png,2
1495.png,2
1496.png,2
1497.png,2
1498.png,2
1499.png,2
1500.png,2
1501.png,2
1502.png,2
1503.png,2
1504.png,2
1505.png,2
1506.png,2
1507.png,2
1508.png,2
1509.png,2
1510.png,2
1511.png,2
1512.png,2
1513.png,2
1514.png,2
1515.png,2
1516.png,2
1517.png,2
1518.png,2
1519.png,2
1520.png,2
1521.png,2
1522.png,2
1523.png,2
1524.png,2
1525.png,2
1526.png,2
1527.png,2
1528.png,2
1529.png,2
1530.png,2
1531.png,2
1532.png,2
1533.png,2
1534.png,2
1535.png,2
1536.png,2
1537.png,2
1538.png,2
1539.png,2
1540.png,2
1541.png,2
1542.png,2
1543.png,2
1544.png,2
1545.png,2
1546.png,2
1547.png,2
1548.png,2
1549.png,2
1550.png,2
1551.png,2
1552.png,2
1553.png,2
1554.png,2
1555.png,2
1556.png,2
1557.png,2
1558.png,2
1559.png,2
1560.png,2
1561.png,2
1562.png,2
1563.png,2
1564.png,2
1565.png,2
1566.png,2
1567.png,2
1568.png,2
1569.png,2
1570.png,2
1571.png,2
1572.png,2
1573.png,2
1574.png,2
1575.png,2
1576.png,2
1577.png,2
1578.png,2
1579.png,2
1580.png,2
1581.png,2
1582.png,2
1583.png,2
1584.png,2
1585.png,2
1586.png,2
1587.png,2
1588.png,2
1589.png,2
1590.png,2
1591.png,2
1592.png,2
1593.png,2
1594.png,2
1595.png,2
1596.png,2
1597.png,2
1598.png,2
1599.png,2
1600.png,2
1601.png,2
1602.png,2
1603.png,2
1604.png,2
1605.png,2
1606.png,2
1607.png,2
1608.png,2
1609.png,2
1610.png,2
1611.png,2
1612.png,2
1613.png,2
1614.png,2
1615.png,2
1616.png,2
1617.png,2
1618.png,2
1619.png,2
1620.png,2
1621.png,2
1622.png,2
1623.png,2
1624.png,2
1625.png,2
1626.png,2
1627.png,2
1628.png,2
1629.png,2
1630.png,2
1631.png,2
1632.png,2
1633.png,2
1634.png,2
1635.png,2
1636.png,2
1637.png,2
1638.png,2
1639.png,2
1640.png,2
1641.png,2
1642.png,2
1643.png,2
1644.png,2
1645.png,2
1646.png,2
1647.png,2
1648.png,2
1649.png,2
1650.png,2
1651.png,2
1652.png,2
1653.png,2
1654.png,2
1655.png,2
1656.png,2
1657.png,2
1658.png,2
1659.png,2
1660.png,2
1661.png,2
1662.png,2
1663.png,2
1664.png,2
1665.png,2
1666.png,2
1667.png,2
1668.png,2
1669.png,2
1670.png,2
1671.png,2
1672.png,2
1673.png,2
1674.png,2
1675.png,2
1676.png,2
1677.png,2
1678.png,2
1679.png,2
1680.png,2
1681.png,2
1682.png,2
1683.png,2
1684.png,2
1685.png,2
1686.png,2
1687.png,2
1688.png,2
1689.png,2
1690.png,2
1691.png,2
1692.png,2
1693.png,2
1694.png,2
1695.png,2
1696.png,2
1697.png,2
1698.png,2
1699.png,2
1700.png,2
1701.png,2
1702.png,2
1703.png,2
1704.png,2
1705.png,2
1706.png,2
1707.png,2
1708.png,2
1709.png,2
1710.png,2
1711.png,2
1712.png,2
1713.png,2
1714.png,2
1715.png,2
1716.png,2
1717.png,2
1718.png,2
1719.png,2
1720.png,2
1721.png,2
1722.png,2
1723.png,2
1724.png,2
1725.png,2
1726.png,2
1727.png,2
1728.png,2
1729.png,2
1730.png,2
1731.png,2
1732.png,2
1733.png,2
1734.png,2
1735.png,2
1736.png,2
1737.png,2
1738.png,2
1739.png,2
1740.png,2
1741.png,2
1742.png,2
1743.png,2
1744.png,2
1745.png,2
1746.png,2
1747.png,2
1748.png,2
1749.png,2
1750.png,2
1751.png,2
1752.png,2
1753.png,2
1754.png,2
1755.png,2
1756.png,2
1757.png,2
1758.png,2
1759.png,2
1760.png,2
1761.png,2
1762.png,2
1763.png,2
1764.png,2
1765.png,2
1766.png,2
1767.png,2
1768.png,2
1769.png,2
1770.png,2
1771.png,2
1772.png,2
1773.png,2
1774.png,2
1775.png,2
1776.png,2
1777.png,2
1778.png,2
1779.png,2
1780.png,2
1781.png,2
1782.png,2
1783.png,2
1784.png,2
1785.png,2
1786.png,2
1787.png,2
1788.png,2
1789.png,2
1790.png,2
1791.png,2
1792.png,2
1793.png,2
1794.png,2
1795.png,2
1796.png,2
1797.png,2
1798.png,2
1799.png,2
1800.png,2
1801.png,2
1802.png,2
1803.png,2
1804.png,2
1805.png,2
1806.png,2
1807.png,2
1808.png,2
1809.png,2
1810.png,2
1811.png,2
1812.png,2
1813.png,2
1814.png,2
1815.png,2
1816.png,2
1817.png,2
1818.png,2
1819.png,2
1820.png,2
1821.png,2
1822.png,2
1823.png,2
1824.png,2
1825.png,2
1826.png,2
1827.png,2
1828.png,2
1829.png,2
1830.png,2
1831.png,2
1832.png,2
1833.png,2
1834.png,2
1835.png,2
1836.png,2
1837.png,2
1838.png,2
1839.png,2
1840.png,2
1841.png,2
1842.png,2
1843.png,2
1844.png,2
1845.png,2
1846.png,2
1847.png,2
1848.png,2
1849.png,2
1850.png,2
1851.png,2
1852.png,2
1853.png,2
1854.png,2
1855.png,2
1856.png,2
1857.png,2
1858.png,2
1859.png,2
1860.png,2
1861.png,2
1862.png,2
1863.png,2
1864.png,2
1865.png,2
1866.png,2
1867.png,2
1868.png,2
1869.png,2
1870.png,2
1871.png,2
1872.png,2
1873.png,2
1874.png,2
1875.png,2
1876.png,2
1877.png,2
1878.png,2
1879.png,2
1880.png,2
1881.png,2
1882.png,2
1883.png,2
1884.png,2
1885.png,2
1886.png,2
1887.png,2
1888.png,2
1889.png,2
1890.png,2
1891.png,2
1892.png,2
1893.png,2
1894.png,2
1895.png,2
1896.png,2
1897.png,2
1898.png,2
1899.png,2
1900.png,2
1901.png,2
1902.png,2
1903.png,2
1904.png,2
1905.png,2
1906.png,2
1907.png,2
1908.png,2
1909.png,2
1910.png,2
1911.png,2
1912.png,2
1913.png,2
1914.png,2
1915.png,2
1916.png,2
1917.png,2
1918.png,2
1919.png,2
1920.png,2
1921.png,2
1922.png,2
1923.png,2
1924.png,2
1925.png,2
1926.png,2
1927.png,2
1928.png,2
1929.png,2
1930.png,2
1931.png,2
1932.png,2
1933.png,2
1934.png,2
1935.png,2
1936.png,2
1937.png,2
1938.png,2
1939.png,2
1940.png,2
1941.png,2
1942.png,2
1943.png,2
1944.png,2
1945.png,2
1946.png,2
1947.png,2
1948.png,2
1949.png,2
1950.png,2
1951.png,2
1952.png,2
1953.png,2
1954.png,2
1955.png,2
1956.png,2
1957.png,2
1958.png,2
1959.png,2
1960.png,2
1961.png,2
1962.png,2
1963.png,2
1964.png,2
1965.png,2
1966.png,2
1967.png,2
1968.png,2
1969.png,2
1970.png,2
1971.png,2
1972.png,2
1973.png,2
1974.png,2
1975.png,2
1976.png,2
1977.png,2
1978.png,2
1979.png,2
1980.png,2
1981.png,2
1982.png,2
1983.png,2
1984.png,2
1985.png,2
1986.png,2
1987.png,2
1988.png,2
1989.png,2
1990.png,2
1991.png,2
1992.png,2
1993.png,2
1994.png,2
1995.png,2
1996.png,2
1997.png,2
1998.png,2
1999.png,2
2000.png,2
2001.png,2
2002.png,2
2003.png,2
2004.png,2
2005.png,2
2006.png,2
2007.png,2
2008.png,2
2009.png,2
2010.png,2
2011.png,2
2012.png,2
2013.png,2
2014.png,2
2015.png,2
2016.png,2
2017.png,2
2018.png,2
2019.png,2
2020.png,2
2021.png,2
2022.png,2
2023.png,2
2024.png,2
2025.png,2
2026.png,2
2027.png,2
2028.png,2
2029.png,2
2030.png,2
2031.png,2
2032.png,2
2033.png,2
2034.png,2
2035.png,2
2036.png,2
2037.png,2
2038.png,2
2039.png,2
2040.png,2
2041.png,2
2042.png,2
2043.png,2
2044.png,2
2045.png,2
2046.png,2
2047.png,2
2048.png,2
2049.png,2
2050.png,2
2051.png,2
2052.png,2
2053.png,2
2054.png,2
2055.png,2
2056.png,2
2057.png,2
2058.png,2
2059.png,2
2060.png,2
2061.png,2
2062.png,2
2063.png,2
2064.png,2
2065.png,2
2066.png,2
2067.png,2
2068.png,2
2069.png,2
2070.png,2
2071.png,2
2072.png,2
2073.png,2
2074.png,2
2075.png,2
2076.png,2
2077.png,2
2078.png,2
2079.png,2
2080.png,2
2081.png,2
2082.png,2
2083.png,2
2084.png,2
2085.png,2
2086.png,2
2087.png,2
2088.png,2
2089.png,2
2090.png,2
2091.png,2
2092.png,2
2093.png,2
2094.png,2
2095.png,2
2096.png,2
2097.png,2
2098.png,2
2099.png,2
2100.png,2
2101.png,2
2102.png,2
2103.png,2
2104.png,2
2105.png,2
2106.png,2
2107.png,2
2108.png,2
2109.png,2
2110.png,2
2111.png,2
2112.png,2
2113.png,2
2114.png,2
2115.png,2
2116.png,2
2117.png,2
2118.png,2
2119.png,2
2120.png,2
2121.png,2
2122.png,2
2123.png,2
2124.png,2
2125.png,2
2126.png,2
2127.png,2
2128.png,2
2129.png,2
2130.png,2
2131.png,2
2132.png,2
2133.png,2
2134.png,2
2135.png,2
2136.png,2
2137.png,2
2138.png,2
2139.png,2
2140.png,2
2141.png,2
2142.png,2
2143.png,2
2144.png,2
2145.png,2
2146.png,2
2147.png,2
2148.png,2
2149.png,2
2150.png,2
2151.png,2
2152.png,2
2153.png,2
2154.png,2
2155.png,2
2156.png,2
2157.png,2
2158.png,2
2159.png,2
2160.png,2
2161.png,2
2162.png,3
2163.png,3
2164.png,3
2165.png,3
2166.png,3
2167.png,3
2168.png,3
2169.png,3
2170.png,3
2171.png,3
2172.png,3
2173.png,3
2174.png,3
2175.png,3
2176.png,3
2177.png,3
2178.png,3
2179.png,3
2180.png,3
2181.png,3
2182.png,3
2183.png,3
2184.png,3
2185.png,3
2186.png,3
2187.png,3
2188.png,3
2189.png,3
2190.png,3
2191.png,3
2192.png,3
2193.png,3
2194.png,3
2195.png,3
2196.png,3
2197.png,3
2198.png,3
2199.png,3
2200.png,3
2201.png,3
2202.png,3
2203.png,3
2204.png,3
2205.png,3
2206.png,3
2207.png,3
2208.png,3
2209.png,3
2210.png,3
2211.png,3
2212.png,3
2213.png,3
2214.png,3
2215.png,3
2216.png,3
2217.png,3
2218.png,3
2219.png,3
2220.png,3
2221.png,3
2222.png,3
2223.png,3
2224.png,3
2225.png,3
2226.png,3
2227.png,3
2228.png,3
2229.png,3
2230.png,3
2231.png,3
2232.png,3
2233.png,3
2234.png,3
2235.png,3
2236.png,3
2237.png,3
2238.png,3
2239.png,3
2240.png,3
2241.png,3
2242.png,3
2243.png,3
2244.png,3
2245.png,3
2246.png,3
2247.png,3
2248.png,3
2249.png,3
2250.png,3
2251.png,3
2252.png,3
2253.png,3
2254.png,3
2255.png,3
2256.png,3
2257.png,3
2258.png,3
2259.png,3
2260.png,3
2261.png,3
2262.png,3
2263.png,3
2264.png,3
2265.png,3
2266.png,3
2267.png,3
2268.png,3
2269.png,3
2270.png,3
2271.png,3
2272.png,3
2273.png,3
2274.png,3
2275.png,3
2276.png,3
2277.png,3
2278.png,3
2279.png,3
2280.png,3
2281.png,3
2282.png,3
2283.png,3
2284.png,3
2285.png,3
2286.png,3
2287.png,3
2288.png,3
2289.png,3
2290.png,3
2291.png,3
2292.png,3
2293.png,3
2294.png,3
2295.png,3
2296.png,3
2297.png,3
2298.png,3
2299.png,3
2300.png,3
2301.png,3
2302.png,3
2303.png,3
2304.png,3
2305.png,3
2306.png,3
2307.png,3
2308.png,3
2309.png,3
2310.png,3
2311.png,3
2312.png,3
2313.png,3
2314.png,3
2315.png,3
2316.png,3
2317.png,3
2318.png,3
2319.png,3
2320.png,3
2321.png,3
2322.png,3
2323.png,3
2324.png,3
2325.png,3
2326.png,3
2327.png,3
2328.png,3
2329.png,3
2330.png,3
2331.png,3
2332.png,3
2333.png,3
2334.png,3
2335.png,3
2336.png,3
2337.png,3
2338.png,3
2339.png,3
2340.png,3
2341.png,3
2342.png,3
2343.png,3
2344.png,3
2345.png,3
2346.png,3
2347.png,3
2348.png,3
2349.png,3
2350.png,3
2351.png,3
2352.png,3
2353.png,3
2354.png,3
2355.png,3
2356.png,3
2357.png,3
2358.png,3
2359.png,3
2360.png,3
2361.png,3
2362.png,3
2363.png,3
2364.png,3
2365.png,3
2366.png,3
2367.png,3
2368.png,3
2369.png,3
2370.png,3
2371.png,3
2372.png,3
2373.png,3
2374.png,3
2375.png,3
2376.png,3
2377.png,3
2378.png,3
2379.png,3
2380.png,3
2381.png,3
2382.png,3
2383.png,3
2384.png,3
2385.png,3
2386.png,3
2387.png,3
2388.png,3
2389.png,3
2390.png,3
2391.png,3
2392.png,3
2393.png,3
2394.png,3
2395.png,3
2396.png,3
2397.png,3
2398.png,3
2399.png,3
2400.png,3
2401.png,3
2402.png,3
2403.png,3
2404.png,3
2405.png,3
2406.png,3
2407.png,3
2408.png,3
2409.png,3
2410.png,3
2411.png,3
2412.png,3
2413.png,3
2414.png,3
2415.png,3
2416.png,3
2417.png,3
2418.png,3
2419.png,3
2420.png,3
2421.png,3
2422.png,3
2423.png,3
2424.png,3
2425.png,3
2426.png,3
2427.png,3
2428.png,3
2429.png,3
2430.png,3
2431.png,3
2432.png,3
2433.png,3
2434.png,3
2435.png,3
2436.png,3
2437.png,3
2438.png,3
2439.png,3
2440.png,3
2441.png,3
2442.png,3
2443.png,3
2444.png,3
2445.png,3
2446.png,3
2447.png,3
2448.png,3
2449.png,3
2450.png,3
2451.png,3
2452.png,3
2453.png,3
2454.png,3
2455.png,3
2456.png,3
2457.png,3
2458.png,3
2459.png,3
2460.png,3
2461.png,3
2462.png,3
2463.png,3
2464.png,3
2465.png,3
2466.png,3
2467.png,3
2468.png,3
2469.png,3
2470.png,3
2471.png,3
2472.png,3
2473.png,3
2474.png,3
2475.png,3
2476.png,3
2477.png,3
2478.png,3
2479.png,3
2480.png,3
2481.png,3
2482.png,3
2483.png,3
2484.png,3
2485.png,3
2486.png,3
2487.png,3
2488.png,3
2489.png,3
2490.png,3
2491.png,3
2492.png,3
2493.png,3
2494.png,3
2495.png,3
2496.png,3
2497.png,3
2498.png,3
2499.png,3
2500.png,3
2501.png,3
2502.png,3
2503.png,3
2504.png,3
2505.png,3
2506.png,3
2507.png,3
2508.png,3
2509.png,3
2510.png,3
2511.png,3
2512.png,3
2513.png,3
2514.png,3
2515.png,3
2516.png,3
2517.png,3
2518.png,3
2519.png,3
2520.png,3
2521.png,3
2522.png,3
2523.png,3
2524.png,3
2525.png,3
2526.png,3
2527.png,3
2528.png,3
2529.png,3
2530.png,3
2531.png,3
2532.png,3
2533.png,3
2534.png,3
2535.png,3
2536.png,3
2537.png,3
2538.png,3
2539.png,3
2540.png,3
2541.png,3
2542.png,3
2543.png,3
2544.png,3
2545.png,3
2546.png,3
2547.png,3
2548.png,3
2549.png,3
2550.png,3
2551.png,3
2552.png,3
2553.png,3
2554.png,3
2555.png,3
2556.png,3
2557.png,3
2558.png,3
2559.png,3
2560.png,3
2561.png,3
2562.png,3
2563.png,3
2564.png,3
2565.png,3
2566.png,3
2567.png,3
2568.png,3
2569.png,3
2570.png,3
2571.png,3
2572.png,3
2573.png,3
2574.png,3
2575.png,3
2576.png,3
2577.png,3
2578.png,3
2579.png,3
2580.png,3
2581.png,3
2582.png,3
2583.png,3
2584.png,3
2585.png,3
2586.png,3
2587.png,3
2588.png,3
2589.png,3
2590.png,3
2591.png,3
2592.png,3
2593.png,3
2594.png,3
2595.png,3
2596.png,3
2597.png,3
2598.png,3
2599.png,3
2600.png,3
2601.png,3
2602.png,3
2603.png,3
2604.png,3
2605.png,3
2606.png,3
2607.png,3
2608.png,3
2609.png,3
2610.png,3
2611.png,3
2612.png,3
2613.png,3
2614.png,3
2615.png,3
2616.png,3
2617.png,3
2618.png,3
2619.png,3
2620.png,3
2621.png,3
2622.png,3
2623.png,3
2624.png,3
2625.png,3
2626.png,3
2627.png,3
2628.png,3
2629.png,3
2630.png,3
2631.png,3
2632.png,3
2633.png,3
2634.png,3
2635.png,3
2636.png,3
2637.png,3
2638.png,3
2639.png,3
2640.png,3
2641.png,3
2642.png,3
2643.png,3
2644.png,3
2645.png,3
2646.png,3
2647.png,3
2648.png,3
2649.png,3
2650.png,3
2651.png,3
2652.png,3
2653.png,3
2654.png,3
2655.png,3
2656.png,3
2657.png,3
2658.png,3
2659.png,3
2660.png,3
2661.png,3
2662.png,3
2663.png,3
2664.png,3
2665.png,3
2666.png,3
2667.png,3
2668.png,3
2669.png,3
2670.png,3
2671.png,3
2672.png,3
2673.png,3
2674.png,3
2675.png,3
2676.png,3
2677.png,3
2678.png,3
2679.png,3
2680.png,3
2681.png,3
2682.png,3
2683.png,3
2684.png,3
2685.png,3
2686.png,3
2687.png,3
2688.png,3
2689.png,3
2690.png,3
2691.png,3
2692.png,3
2693.png,3
2694.png,3
2695.png,3
2696.png,3
2697.png,3
2698.png,3
2699.png,3
2700.png,3
2701.png,3
2702.png,3
2703.png,3
2704.png,3
2705.png,3
2706.png,3
2707.png,3
2708.png,3
2709.png,3
2710.png,3
2711.png,3
2712.png,3
2713.png,3
2714.png,3
2715.png,3
2716.png,3
2717.png,3
2718.png,3
2719.png,3
2720.png,3
2721.png,3
2722.png,3
2723.png,3
2724.png,3
2725.png,3
2726.png,3
2727.png,3
2728.png,3
2729.png,3
2730.png,3
2731.png,3
2732.png,3
2733.png,3
2734.png,3
2735.png,3
2736.png,3
2737.png,3
2738.png,3
2739.png,3
2740.png,3
2741.png,3
2742.png,3
2743.png,3
2744.png,3
2745.png,3
2746.png,3
2747.png,3
2748.png,3
2749.png,3
2750.png,3
2751.png,3
2752.png,3
2753.png,3
2754.png,3
2755.png,3
2756.png,3
2757.png,3
2758.png,3
2759.png,3
2760.png,3
2761.png,3
2762.png,3
2763.png,3
2764.png,3
2765.png,3
2766.png,3
2767.png,3
2768.png,3
2769.png,3
2770.png,3
2771.png,3
2772.png,3
2773.png,3
2774.png,3
2775.png,3
2776.png,3
2777.png,3
2778.png,3
2779.png,3
2780.png,3
2781.png,3
2782.png,3
2783.png,3
2784.png,3
2785.png,3
2786.png,3
2787.png,4
2788.png,4
2789.png,4
2790.png,4
2791.png,4
2792.png,4
2793.png,4
2794.png,4
2795.png,4
2796.png,4
2797.png,4
2798.png,4
2799.png,4
2800.png,4
2801.png,4
2802.png,4
2803.png,4
2804.png,4
2805.png,4
2806.png,4
2807.png,4
2808.png,4
2809.png,4
2810.png,4
2811.png,4
2812.png,4
2813.png,4
2814.png,4
2815.png,4
2816.png,4
2817.png,4
2818.png,4
2819.png,4
2820.png,4
2821.png,4
2822.png,4
2823.png,4
2824.png,4
2825.png,4
2826.png,4
2827.png,4
2828.png,4
2829.png,4
2830.png,4
2831.png,4
2832.png,4
2833.png,4
2834.png,4
2835.png,4
2836.png,4
2837.png,4
2838.png,4
2839.png,4
2840.png,4
2841.png,4
2842.png,4
2843.png,4
2844.png,4
2845.png,4
2846.png,4
2847.png,4
2848.png,4
2849.png,4
2850.png,4
2851.png,4
2852.png,4
2853.png,4
2854.png,4
2855.png,4
2856.png,4
2857.png,4
2858.png,4
2859.png,4
2860.png,4
2861.png,4
2862.png,4
2863.png,4
2864.png,4
2865.png,4
2866.png,4
2867.png,4
2868.png,4
2869.png,4
2870.png,4
2871.png,4
2872.png,4
2873.png,4
2874.png,4
2875.png,4
2876.png,4
2877.png,4
2878.png,4
2879.png,4
2880.png,4
2881.png,4
2882.png,4
2883.png,4
2884.png,4
2885.png,4
2886.png,4
2887.png,4
2888.png,4
2889.png,4
2890.png,4
2891.png,4
2892.png,4
2893.png,4
2894.png,4
2895.png,4
2896.png,4
2897.png,4
2898.png,4
2899.png,4
2900.png,4
2901.png,4
2902.png,4
2903.png,4
2904.png,4
2905.png,4
2906.png,4
2907.png,4
2908.png,4
2909.png,4
2910.png,4
2911.png,4
2912.png,4
2913.png,4
2914.png,4
2915.png,4
2916.png,4
2917.png,4
2918.png,4
2919.png,4
2920.png,4
2921.png,4
2922.png,4
2923.png,4
2924.png,4
2925.png,4
2926.png,4
2927.png,4
2928.png,4
2929.png,4
2930.png,4
2931.png,4
2932.png,4
2933.png,4
2934.png,4
2935.png,4
2936.png,4
2937.png,4
2938.png,4
2939.png,4
2940.png,4
2941.png,4
2942.png,4
2943.png,4
2944.png,4
2945.png,4
2946.png,4
2947.png,4
2948.png,4
2949.png,4
2950.png,4
2951.png,4
2952.png,4
2953.png,4
2954.png,4
2955.png,4
2956.png,4
2957.png,4
2958.png,4
2959.png,4
2960.png,4
2961.png,4
2962.png,4
2963.png,4
2964.png,4
2965.png,4
2966.png,4
2967.png,4
2968.png,4
2969.png,4
2970.png,4
2971.png,4
2972.png,4
2973.png,4
2974.png,4
2975.png,4
2976.png,4
2977.png,4
2978.png,4
2979.png,4
2980.png,4
2981.png,4
2982.png,4
2983.png,4
2984.png,4
2985.png,4
2986.png,4
2987.png,4
2988.png,4
2989.png,4
2990.png,4
2991.png,4
2992.png,4
2993.png,4
2994.png,4
2995.png,4
2996.png,4
2997.png,4
2998.png,4
2999.png,4
3000.png,4
3001.png,4
3002.png,4
3003.png,4
3004.png,4
3005.png,4
3006.png,4
3007.png,4
3008.png,4
3009.png,4
3010.png,4
3011.png,4
3012.png,4
3013.png,4
3014.png,4
3015.png,4
3016.png,4
3017.png,4
3018.png,4
3019.png,4
3020.png,4
3021.png,4
3022.png,4
3023.png,4
3024.png,4
3025.png,4
3026.png,4
3027.png,4
3028.png,4
3029.png,4
3030.png,4
3031.png,4
3032.png,4
3033.png,4
3034.png,4
3035.png,4
3036.png,4
3037.png,4
3038.png,4
3039.png,4
3040.png,4
3041.png,4
3042.png,4
3043.png,4
3044.png,4
3045.png,4
3046.png,4
3047.png,4
3048.png,4
3049.png,4
3050.png,4
3051.png,4
3052.png,4
3053.png,4
3054.png,4
3055.png,4
3056.png,4
3057.png,4
3058.png,4
3059.png,4
3060.png,4
3061.png,4
3062.png,4
3063.png,4
3064.png,4
3065.png,4
3066.png,4
3067.png,4
3068.png,4
3069.png,4
3070.png,4
3071.png,4
3072.png,4
3073.png,4
3074.png,4
3075.png,4
3076.png,4
3077.png,4
3078.png,4
3079.png,4
3080.png,4
3081.png,4
3082.png,4
3083.png,4
3084.png,4
3085.png,4
3086.png,4
3087.png,4
3088.png,4
3089.png,4
3090.png,4
3091.png,4
3092.png,4
3093.png,4
3094.png,4
3095.png,4
3096.png,4
3097.png,4
3098.png,4
3099.png,4
3100.png,4
3101.png,4
3102.png,4
3103.png,4
3104.png,4
3105.png,4
3106.png,4
3107.png,4
3108.png,4
3109.png,4
3110.png,4
3111.png,4
3112.png,4
3113.png,4
3114.png,4
3115.png,4
3116.png,4
3117.png,4
3118.png,4
3119.png,4
3120.png,4
3121.png,4
3122.png,4
3123.png,4
3124.png,4
3125.png,4
3126.png,4
3127.png,4
3128.png,4
3129.png,4
3130.png,4
3131.png,4
3132.png,4
3133.png,4
3134.png,4
3135.png,4
3136.png,4
3137.png,4
3138.png,4
3139.png,4
3140.png,4
3141.png,4
3142.png,4
3143.png,4
3144.png,4
3145.png,4
3146.png,4
3147.png,4
3148.png,4
3149.png,4
3150.png,4
3151.png,4
3152.png,4
3153.png,4
3154.png,4
3155.png,4
3156.png,4
3157.png,4
3158.png,4
3159.png,4
3160.png,4
3161.png,4
3162.png,4
3163.png,4
3164.png,4
3165.png,4
3166.png,4
3167.png,4
3168.png,4
3169.png,4
3170.png,4
3171.png,4
3172.png,4
3173.png,4
3174.png,4
3175.png,4
3176.png,4
3177.png,4
3178.png,4
3179.png,4
3180.png,4
3181.png,4
3182.png,4
3183.png,4
3184.png,4
3185.png,4
3186.png,4
3187.png,4
3188.png,4
3189.png,4
3190.png,4
3191.png,4
3192.png,4
3193.png,4
3194.png,4
3195.png,4
3196.png,4
3197.png,4
3198.png,4
3199.png,4
3200.png,4
3201.png,4
3202.png,4
3203.png,4
3204.png,4
3205.png,4
3206.png,4
3207.png,4
3208.png,4
3209.png,4
3210.png,4
3211.png,4
3212.png,4
3213.png,4
3214.png,4
3215.png,4
3216.png,4
3217.png,4
3218.png,4
3219.png,4
3220.png,4
3221.png,4
3222.png,4
3223.png,4
3224.png,4
3225.png,4
3226.png,4
3227.png,4
3228.png,4
3229.png,4
3230.png,4
3231.png,4
3232.png,4
3233.png,4
3234.png,4
3235.png,4
3236.png,4
3237.png,4
3238.png,4
3239.png,4
3240.png,4
3241.png,4
3242.png,4
3243.png,4
3244.png,4
3245.png,4
3246.png,4
3247.png,4
3248.png,4
3249.png,4
3250.png,4
3251.png,4
3252.png,4
3253.png,4
3254.png,4
3255.png,4
3256.png,4
3257.png,4
3258.png,4
3259.png,4
3260.png,4
3261.png,4
3262.png,4
3263.png,4
3264.png,4
3265.png,4
3266.png,4
3267.png,4
3268.png,4
3269.png,4
3270.png,4
3271.png,4
3272.png,4
3273.png,4
3274.png,4
3275.png,4
3276.png,4
3277.png,4
3278.png,4
3279.png,4
3280.png,4
3281.png,4
3282.png,4
3283.png,4
3284.png,4
3285.png,4
3286.png,4
3287.png,4
3288.png,4
3289.png,4
3290.png,4
3291.png,4
3292.png,4
3293.png,4
3294.png,4
3295.png,4
3296.png,4
3297.png,4
3298.png,4
3299.png,4
3300.png,4
3301.png,4
3302.png,4
3303.png,4
3304.png,4
3305.png,4
3306.png,4
3307.png,4
3308.png,4
3309.png,4
3310.png,4
3311.png,4
3312.png,4
3313.png,4
3314.png,4
3315.png,4
3316.png,4
3317.png,4
3318.png,4
3319.png,4
3320.png,4
3321.png,4
3322.png,4
3323.png,4
3324.png,4
3325.png,4
3326.png,4
3327.png,4
3328.png,4
3329.png,4
3330.png,4
3331.png,4
3332.png,4
3333.png,4
3334.png,4
3335.png,4
3336.png,4
3337.png,4
3338.png,4
3339.png,4
3340.png,4
3341.png,4
3342.png,4
3343.png,4
3344.png,4
3345.png,4
3346.png,4
3347.png,4
3348.png,4
3349.png,4
3350.png,4
3351.png,4
3352.png,4
3353.png,4
3354.png,4
3355.png,4
3356.png,4
3357.png,4
3358.png,4
3359.png,4
3360.png,4
3361.png,4
3362.png,4
3363.png,4
3364.png,4
3365.png,4
3366.png,4
3367.png,4
3368.png,4
3369.png,4
3370.png,4
3371.png,4
3372.png,4
3373.png,4
3374.png,4
3375.png,4
3376.png,4
3377.png,4
3378.png,4
3379.png,4
3380.png,4
3381.png,4
3382.png,4
3383.png,4
3384.png,4
3385.png,4
3386.png,4
3387.png,4
3388.png,4
3389.png,4
3390.png,4
3391.png,4
3392.png,4
3393.png,4
3394.png,4
3395.png,4
3396.png,4
3397.png,4
3398.png,4
3399.png,4
3400.png,4
3401.png,4
3402.png,4
3403.png,4
3404.png,4
3405.png,4
3406.png,4
3407.png,4
3408.png,4
3409.png,4
3410.png,4
3411.png,4
3412.png,5
3413.png,5
3414.png,5
3415.png,5
3416.png,5
3417.png,5
3418.png,5
3419.png,5
3420.png,5
3421.png,5
3422.png,5
3423.png,5
3424.png,5
3425.png,5
3426.png,5
3427.png,5
3428.png,5
3429.png,5
3430.png,5
3431.png,5
3432.png,5
3433.png,5
3434.png,5
3435.png,5
3436.png,5
3437.png,5
3438.png,5
3439.png,5
3440.png,5
3441.png,5
3442.png,5
3443.png,5
3444.png,5
3445.png,5
3446.png,5
3447.png,5
3448.png,5
3449.png,5
3450.png,5
3451.png,5
3452.png,5
3453.png,5
3454.png,5
3455.png,5
3456.png,5
3457.png,5
3458.png,5
3459.png,5
3460.png,5
3461.png,5
3462.png,5
3463.png,5
3464.png,5
3465.png,5
3466.png,5
3467.png,5
3468.png,5
3469.png,5
3470.png,5
3471.png,5
3472.png,5
3473.png,5
3474.png,5
3475.png,5
3476.png,5
3477.png,5
3478.png,5
3479.png,5
3480.png,5
3481.png,5
3482.png,5
3483.png,5
3484.png,5
3485.png,5
3486.png,5
3487.png,5
3488.png,5
3489.png,5
3490.png,5
3491.png,5
3492.png,5
3493.png,5
3494.png,5
3495.png,5
3496.png,5
3497.png,5
3498.png,5
3499.png,5
3500.png,5
3501.png,5
3502.png,5
3503.png,5
3504.png,5
3505.png,5
3506.png,5
3507.png,5
3508.png,5
3509.png,5
3510.png,5
3511.png,5
3512.png,5
3513.png,5
3514.png,5
3515.png,5
3516.png,5
3517.png,5
3518.png,5
3519.png,5
3520.png,5
3521.png,5
3522.png,5
3523.png,5
3524.png,5
3525.png,5
3526.png,5
3527.png,5
3528.png,5
3529.png,5
3530.png,5
3531.png,5
3532.png,5
3533.png,5
3534.png,5
3535.png,5
3536.png,5
3537.png,5
3538.png,5
3539.png,5
3540.png,5
3541.png,5
3542.png,5
3543.png,5
3544.png,5
3545.png,5
3546.png,5
3547.png,5
3548.png,5
3549.png,5
3550.png,5
3551.png,5
3552.png,5
3553.png,5
3554.png,5
3555.png,5
3556.png,5
3557.png,5
3558.png,5
3559.png,5
3560.png,5
3561.png,5
3562.png,5
3563.png,5
3564.png,5
3565.png,5
3566.png,5
3567.png,5
3568.png,5
3569.png,5
3570.png,5
3571.png,5
3572.png,5
3573.png,5
3574.png,5
3575.png,5
3576.png,5
3577.png,5
3578.png,5
3579.png,5
3580.png,5
3581.png,5
3582.png,5
3583.png,5
3584.png,5
3585.png,5
3586.png,5
3587.png,5
3588.png,5
3589.png,5
3590.png,5
3591.png,5
3592.png,5
3593.png,5
3594.png,5
3595.png,5
3596.png,5
3597.png,5
3598.png,5
3599.png,5
3600.png,5
3601.png,5
3602.png,5
3603.png,5
3604.png,5
3605.png,5
3606.png,5
3607.png,5
3608.png,5
3609.png,5
3610.png,5
3611.png,5
3612.png,5
3613.png,5
3614.png,5
3615.png,5
3616.png,5
3617.png,5
3618.png,5
3619.png,5
3620.png,5
3621.png,5
3622.png,5
3623.png,5
3624.png,5
3625.png,5
3626.png,5
3627.png,5
3628.png,5
3629.png,5
3630.png,5
3631.png,5
3632.png,5
3633.png,5
3634.png,5
3635.png,5
3636.png,5
3637.png,5
3638.png,5
3639.png,5
3640.png,5
3641.png,5
3642.png,5
3643.png,5
3644.png,5
3645.png,5
3646.png,5
3647.png,5
3648.png,5
3649.png,5
3650.png,5
3651.png,5
3652.png,5
3653.png,5
3654.png,5
3655.png,5
3656.png,5
3657.png,5
3658.png,5
3659.png,5
3660.png,5
3661.png,5
3662.png,5
3663.png,5
3664.png,5
3665.png,5
3666.png,5
3667.png,5
3668.png,5
3669.png,5
3670.png,5
3671.png,5
3672.png,5
3673.png,5
3674.png,5
3675.png,5
3676.png,5
3677.png,5
3678.png,5
3679.png,5
3680.png,5
3681.png,5
3682.png,5
3683.png,5
3684.png,5
3685.png,5
3686.png,5
3687.png,5
3688.png,5
3689.png,5
3690.png,5
3691.png,5
3692.png,5
3693.png,5
3694.png,5
3695.png,5
3696.png,5
3697.png,5
3698.png,5
3699.png,5
3700.png,5
3701.png,5
3702.png,5
3703.png,5
3704.png,5
3705.png,5
3706.png,5
3707.png,5
3708.png,5
3709.png,5
3710.png,5
3711.png,5
3712.png,5
3713.png,5
3714.png,5
3715.png,5
3716.png,5
3717.png,5
3718.png,5
3719.png,5
3720.png,5
3721.png,5
3722.png,5
3723.png,5
3724.png,5
3725.png,5
3726.png,5
3727.png,5
3728.png,5
3729.png,5
3730.png,5
3731.png,5
3732.png,5
3733.png,5
3734.png,5
3735.png,5
3736.png,5
3737.png,5
3738.png,5
3739.png,5
3740.png,5
3741.png,5
3742.png,5
3743.png,5
3744.png,5
3745.png,5
3746.png,5
3747.png,5
3748.png,5
3749.png,5
3750.png,5
3751.png,5
3752.png,5
3753.png,5
3754.png,5
3755.png,5
3756.png,5
3757.png,5
3758.png,5
3759.png,5
3760.png,5
3761.png,5
3762.png,5
3763.png,5
3764.png,5
3765.png,5
3766.png,5
3767.png,5
3768.png,5
3769.png,5
3770.png,5
3771.png,5
3772.png,5
3773.png,5
3774.png,5
3775.png,5
3776.png,5
3777.png,5
3778.png,5
3779.png,5
3780.png,5
3781.png,5
3782.png,5
3783.png,5
3784.png,5
3785.png,5
3786.png,5
3787.png,5
3788.png,5
3789.png,5
3790.png,5
3791.png,5
3792.png,5
3793.png,5
3794.png,5
3795.png,5
3796.png,5
3797.png,5
3798.png,5
3799.png,5
3800.png,5
3801.png,5
3802.png,5
3803.png,5
3804.png,5
3805.png,5
3806.png,5
3807.png,5
3808.png,5
3809.png,5
3810.png,5
3811.png,5
3812.png,5
3813.png,5
3814.png,5
3815.png,5
3816.png,5
3817.png,5
3818.png,5
3819.png,5
3820.png,5
3821.png,5
3822.png,5
3823.png,5
3824.png,5
3825.png,5
3826.png,5
3827.png,5
3828.png,5
3829.png,5
3830.png,5
3831.png,5
3832.png,5
3833.png,5
3834.png,5
3835.png,5
3836.png,5
3837.png,5
3838.png,5
3839.png,5
3840.png,5
3841.png,5
3842.png,5
3843.png,5
3844.png,5
3845.png,5
3846.png,5
3847.png,5
3848.png,5
3849.png,5
3850.png,5
3851.png,5
3852.png,5
3853.png,5
3854.png,5
3855.png,5
3856.png,5
3857.png,5
3858.png,5
3859.png,5
3860.png,5
3861.png,5
3862.png,5
3863.png,5
3864.png,5
3865.png,5
3866.png,5
3867.png,5
3868.png,5
3869.png,5
3870.png,5
3871.png,5
3872.png,5
3873.png,5
3874.png,5
3875.png,5
3876.png,5
3877.png,5
3878.png,5
3879.png,5
3880.png,5
3881.png,5
3882.png,5
3883.png,5
3884.png,5
3885.png,5
3886.png,5
3887.png,5
3888.png,5
3889.png,5
3890.png,5
3891.png,5
3892.png,5
3893.png,5
3894.png,5
3895.png,5
3896.png,5
3897.png,5
3898.png,5
3899.png,5
3900.png,5
3901.png,5
3902.png,5
3903.png,5
3904.png,5
3905.png,5
3906.png,5
3907.png,5
3908.png,5
3909.png,5
3910.png,5
3911.png,5
3912.png,5
3913.png,5
3914.png,5
3915.png,5
3916.png,5
3917.png,5
3918.png,5
3919.png,5
3920.png,5
3921.png,5
3922.png,5
3923.png,5
3924.png,5
3925.png,5
3926.png,5
3927.png,5
3928.png,5
3929.png,5
3930.png,5
3931.png,5
3932.png,5
3933.png,5
3934.png,5
3935.png,5
3936.png,5
3937.png,5
3938.png,5
3939.png,5
3940.png,5
3941.png,5
3942.png,5
3943.png,5
3944.png,5
3945.png,5
3946.png,5
3947.png,5
3948.png,5
3949.png,5
3950.png,5
3951.png,5
3952.png,5
3953.png,5
3954.png,5
3955.png,5
3956.png,5
3957.png,5
3958.png,5
3959.png,5
3960.png,5
3961.png,5
3962.png,5
3963.png,5
3964.png,5
3965.png,5
3966.png,5
3967.png,5
3968.png,5
3969.png,5
3970.png,5
3971.png,5
3972.png,5
3973.png,5
3974.png,5
3975.png,5
3976.png,5
3977.png,5
3978.png,5
3979.png,5
3980.png,5
3981.png,5
3982.png,5
3983.png,5
3984.png,5
3985.png,5
3986.png,5
3987.png,5
3988.png,5
3989.png,5
3990.png,5
3991.png,5
3992.png,5
3993.png,5
3994.png,5
3995.png,5
3996.png,5
3997.png,5
3998.png,5
3999.png,5
4000.png,5
4001.png,5
4002.png,5
4003.png,5
4004.png,5
4005.png,5
4006.png,5
4007.png,5
4008.png,5
4009.png,5
4010.png,5
4011.png,5
4012.png,5
4013.png,5
4014.png,5
4015.png,5
4016.png,5
4017.png,5
4018.png,5
4019.png,5
4020.png,5
4021.png,5
4022.png,5
4023.png,5
4024.png,5
4025.png,5
4026.png,5
4027.png,5
4028.png,5
4029.png,5
4030.png,5
4031.png,5
4032.png,5
4033.png,5
4034.png,5
4035.png,5
4036.png,5
4037.png,6
4038.png,6
4039.png,6
4040.png,6
4041.png,6
4042.png,6
4043.png,6
4044.png,6
4045.png,6
4046.png,6
4047.png,6
4048.png,6
4049.png,6
4050.png,6
4051.png,6
4052.png,6
4053.png,6
4054.png,6
4055.png,6
4056.png,6
4057.png,6
4058.png,6
4059.png,6
4060.png,6
4061.png,6
4062.png,6
4063.png,6
4064.png,6
4065.png,6
4066.png,6
4067.png,6
4068.png,6
4069.png,6
4070.png,6
4071.png,6
4072.png,6
4073.png,6
4074.png,6
4075.png,6
4076.png,6
4077.png,6
4078.png,6
4079.png,6
4080.png,6
4081.png,6
4082.png,6
4083.png,6
4084.png,6
4085.png,6
4086.png,6
4087.png,6
4088.png,6
4089.png,6
4090.png,6
4091.png,6
4092.png,6
4093.png,6
4094.png,6
4095.png,6
4096.png,6
4097.png,6
4098.png,6
4099.png,6
4100.png,6
4101.png,6
4102.png,6
4103.png,6
4104.png,6
4105.png,6
4106.png,6
4107.png,6
4108.png,6
4109.png,6
4110.png,6
4111.png,6
4112.png,6
4113.png,6
4114.png,6
4115.png,6
4116.png,6
4117.png,6
4118.png,6
4119.png,6
4120.png,6
4121.png,6
4122.png,6
4123.png,6
4124.png,6
4125.png,6
4126.png,6
4127.png,6
4128.png,6
4129.png,6
4130.png,6
4131.png,6
4132.png,6
4133.png,6
4134.png,6
4135.png,6
4136.png,6
4137.png,6
4138.png,6
4139.png,6
4140.png,6
4141.png,6
4142.png,6
4143.png,6
4144.png,6
4145.png,6
4146.png,6
4147.png,6
4148.png,6
4149.png,6
4150.png,6
4151.png,6
4152.png,6
4153.png,6
4154.png,6
4155.png,6
4156.png,6
4157.png,6
4158.png,6
4159.png,6
4160.png,6
4161.png,6
4162.png,6
4163.png,6
4164.png,6
4165.png,6
4166.png,6
4167.png,6
4168.png,6
4169.png,6
4170.png,6
4171.png,6
4172.png,6
4173.png,6
4174.png,6
4175.png,6
4176.png,6
4177.png,6
4178.png,6
4179.png,6
4180.png,6
4181.png,6
4182.png,6
4183.png,6
4184.png,6
4185.png,6
4186.png,6
4187.png,6
4188.png,6
4189.png,6
4190.png,6
4191.png,6
4192.png,6
4193.png,6
4194.png,6
4195.png,6
4196.png,6
4197.png,6
4198.png,6
4199.png,6
4200.png,6
4201.png,6
4202.png,6
4203.png,6
4204.png,6
4205.png,6
4206.png,6
4207.png,6
4208.png,6
4209.png,6
4210.png,6
4211.png,6
4212.png,6
4213.png,6
4214.png,6
4215.png,6
4216.png,6
4217.png,6
4218.png,6
4219.png,6
4220.png,6
4221.png,6
4222.png,6
4223.png,6
4224.png,6
4225.png,6
4226.png,6
4227.png,6
4228.png,6
4229.png,6
4230.png,6
4231.png,6
4232.png,6
4233.png,6
4234.png,6
4235.png,6
4236.png,6
4237.png,6
4238.png,6
4239.png,6
4240.png,6
4241.png,6
4242.png,6
4243.png,6
4244.png,6
4245.png,6
4246.png,6
4247.png,6
4248.png,6
4249.png,6
4250.png,6
4251.png,6
4252.png,6
4253.png,6
4254.png,6
4255.png,6
4256.png,6
4257.png,6
4258.png,6
4259.png,6
4260.png,6
4261.png,6
4262.png,6
4263.png,6
4264.png,6
4265.png,6
4266.png,6
4267.png,6
4268.png,6
4269.png,6
4270.png,6
4271.png,6
4272.png,6
4273.png,6
4274.png,6
4275.png,6
4276.png,6
4277.png,6
4278.png,6
4279.png,6
4280.png,6
4281.png,6
4282.png,6
4283.png,6
4284.png,6
4285.png,6
4286.png,6
4287.png,6
4288.png,6
4289.png,6
4290.png,6
4291.png,6
4292.png,6
4293.png,6
4294.png,6
4295.png,6
4296.png,6
4297.png,6
4298.png,6
4299.png,6
4300.png,6
4301.png,6
4302.png,6
4303.png,6
4304.png,6
4305.png,6
4306.png,6
4307.png,6
4308.png,6
4309.png,6
4310.png,6
4311.png,6
4312.png,6
4313.png,6
4314.png,6
4315.png,6
4316.png,6
4317.png,6
4318.png,6
4319.png,6
4320.png,6
4321.png,6
4322.png,6
4323.png,6
4324.png,6
4325.png,6
4326.png,6
4327.png,6
4328.png,6
4329.png,6
4330.png,6
4331.png,6
4332.png,6
4333.png,6
4334.png,6
4335.png,6
4336.png,6
4337.png,6
4338.png,6
4339.png,6
4340.png,6
4341.png,6
4342.png,6
4343.png,6
4344.png,6
4345.png,6
4346.png,6
4347.png,6
4348.png,6
4349.png,6
4350.png,6
4351.png,6
4352.png,6
4353.png,6
4354.png,6
4355.png,6
4356.png,6
4357.png,6
4358.png,6
4359.png,6
4360.png,6
4361.png,6
4362.png,6
4363.png,6
4364.png,6
4365.png,6
4366.png,6
4367.png,6
4368.png,6
4369.png,6
4370.png,6
4371.png,6
4372.png,6
4373.png,6
4374.png,6
4375.png,6
4376.png,6
4377.png,6
4378.png,6
4379.png,6
4380.png,6
4381.png,6
4382.png,6
4383.png,6
4384.png,6
4385.png,6
4386.png,6
4387.png,6
4388.png,6
4389.png,6
4390.png,6
4391.png,6
4392.png,6
4393.png,6
4394.png,6
4395.png,6
4396.png,6
4397.png,6
4398.png,6
4399.png,6
4400.png,6
4401.png,6
4402.png,6
4403.png,6
4404.png,6
4405.png,6
4406.png,6
4407.png,6
4408.png,6
4409.png,6
4410.png,6
4411.png,6
4412.png,6
4413.png,6
4414.png,6
4415.png,6
4416.png,6
4417.png,6
4418.png,6
4419.png,6
4420.png,6
4421.png,6
4422.png,6
4423.png,6
4424.png,6
4425.png,6
4426.png,6
4427.png,6
4428.png,6
4429.png,6
4430.png,6
4431.png,6
4432.png,6
4433.png,6
4434.png,6
4435.png,6
4436.png,6
4437.png,6
4438.png,6
4439.png,6
4440.png,6
4441.png,6
4442.png,6
4443.png,6
4444.png,6
4445.png,6
4446.png,6
4447.png,6
4448.png,6
4449.png,6
4450.png,6
4451.png,6
4452.png,6
4453.png,6
4454.png,6
4455.png,6
4456.png,6
4457.png,6
4458.png,6
4459.png,6
4460.png,6
4461.png,6
4462.png,6
4463.png,6
4464.png,6
4465.png,6
4466.png,6
4467.png,6
4468.png,6
4469.png,6
4470.png,6
4471.png,6
4472.png,6
4473.png,6
4474.png,6
4475.png,6
4476.png,6
4477.png,6
4478.png,6
4479.png,6
4480.png,6
4481.png,6
4482.png,6
4483.png,6
4484.png,6
4485.png,6
4486.png,6
4487.png,6
4488.png,6
4489.png,6
4490.png,6
4491.png,6
4492.png,6
4493.png,6
4494.png,6
4495.png,6
4496.png,6
4497.png,6
4498.png,6
4499.png,6
4500.png,6
4501.png,6
4502.png,6
4503.png,6
4504.png,6
4505.png,6
4506.png,6
4507.png,6
4508.png,6
4509.png,6
4510.png,6
4511.png,6
4512.png,6
4513.png,6
4514.png,6
4515.png,6
4516.png,6
4517.png,6
4518.png,6
4519.png,6
4520.png,6
4521.png,6
4522.png,6
4523.png,6
4524.png,6
4525.png,6
4526.png,6
4527.png,6
4528.png,6
4529.png,6
4530.png,6
4531.png,6
4532.png,6
4533.png,6
4534.png,6
4535.png,6
4536.png,6
4537.png,6
4538.png,6
4539.png,6
4540.png,6
4541.png,6
4542.png,6
4543.png,6
4544.png,6
4545.png,6
4546.png,6
4547.png,6
4548.png,6
4549.png,6
4550.png,6
4551.png,6
4552.png,6
4553.png,6
4554.png,6
4555.png,6
4556.png,6
4557.png,6
4558.png,6
4559.png,6
4560.png,6
4561.png,6
4562.png,6
4563.png,6
4564.png,6
4565.png,6
4566.png,6
4567.png,6
4568.png,6
4569.png,6
4570.png,6
4571.png,6
4572.png,6
4573.png,6
4574.png,6
4575.png,6
4576.png,6
4577.png,6
4578.png,6
4579.png,6
4580.png,6
4581.png,6
4582.png,6
4583.png,6
4584.png,6
4585.png,6
4586.png,6
4587.png,6
4588.png,6
4589.png,6
4590.png,6
4591.png,6
4592.png,6
4593.png,6
4594.png,6
4595.png,6
4596.png,6
4597.png,6
4598.png,6
4599.png,6
4600.png,6
4601.png,6
4602.png,6
4603.png,6
4604.png,6
4605.png,6
4606.png,6
4607.png,6
4608.png,6
4609.png,6
4610.png,6
4611.png,6
4612.png,6
4613.png,6
4614.png,6
4615.png,6
4616.png,6
4617.png,6
4618.png,6
4619.png,6
4620.png,6
4621.png,6
4622.png,6
4623.png,6
4624.png,6
4625.png,6
4626.png,6
4627.png,6
4628.png,6
4629.png,6
4630.png,6
4631.png,6
4632.png,6
4633.png,6
4634.png,6
4635.png,6
4636.png,6
4637.png,6
4638.png,6
4639.png,6
4640.png,6
4641.png,6
4642.png,6
4643.png,6
4644.png,6
4645.png,6
4646.png,6
4647.png,6
4648.png,6
4649.png,6
4650.png,6
4651.png,6
4652.png,6
4653.png,6
4654.png,6
4655.png,6
4656.png,6
4657.png,6
4658.png,6
4659.png,6
4660.png,6
4661.png,6
4662.png,7
4663.png,7
4664.png,7
4665.png,7
4666.png,7
4667.png,7
4668.png,7
4669.png,7
4670.png,7
4671.png,7
4672.png,7
4673.png,7
4674.png,7
4675.png,7
4676.png,7
4677.png,7
4678.png,7
4679.png,7
4680.png,7
4681.png,7
4682.png,7
4683.png,7
4684.png,7
4685.png,7
4686.png,7
4687.png,7
4688.png,7
4689.png,7
4690.png,7
4691.png,7
4692.png,7
4693.png,7
4694.png,7
4695.png,7
4696.png,7
4697.png,7
4698.png,7
4699.png,7
4700.png,7
4701.png,7
4702.png,7
4703.png,7
4704.png,7
4705.png,7
4706.png,7
4707.png,7
4708.png,7
4709.png,7
4710.png,7
4711.png,7
4712.png,7
4713.png,7
4714.png,7
4715.png,7
4716.png,7
4717.png,7
4718.png,7
4719.png,7
4720.png,7
4721.png,7
4722.png,7
4723.png,7
4724.png,7
4725.png,7
4726.png,7
4727.png,7
4728.png,7
4729.png,7
4730.png,7
4731.png,7
4732.png,7
4733.png,7
4734.png,7
4735.png,7
4736.png,7
4737.png,7
4738.png,7
4739.png,7
4740.png,7
4741.png,7
4742.png,7
4743.png,7
4744.png,7
4745.png,7
4746.png,7
4747.png,7
4748.png,7
4749.png,7
4750.png,7
4751.png,7
4752.png,7
4753.png,7
4754.png,7
4755.png,7
4756.png,7
4757.png,7
4758.png,7
4759.png,7
4760.png,7
4761.png,7
4762.png,7
4763.png,7
4764.png,7
4765.png,7
4766.png,7
4767.png,7
4768.png,7
4769.png,7
4770.png,7
4771.png,7
4772.png,7
4773.png,7
4774.png,7
4775.png,7
4776.png,7
4777.png,7
4778.png,7
4779.png,7
4780.png,7
4781.png,7
4782.png,7
4783.png,7
4784.png,7
4785.png,7
4786.png,7
4787.png,7
4788.png,7
4789.png,7
4790.png,7
4791.png,7
4792.png,7
4793.png,7
4794.png,7
4795.png,7
4796.png,7
4797.png,7
4798.png,7
4799.png,7
4800.png,7
4801.png,7
4802.png,7
4803.png,7
4804.png,7
4805.png,7
4806.png,7
4807.png,7
4808.png,7
4809.png,7
4810.png,7
4811.png,7
4812.png,7
4813.png,7
4814.png,7
4815.png,7
4816.png,7
4817.png,7
4818.png,7
4819.png,7
4820.png,7
4821.png,7
4822.png,7
4823.png,7
4824.png,7
4825.png,7
4826.png,7
4827.png,7
4828.png,7
4829.png,7
4830.png,7
4831.png,7
4832.png,7
4833.png,7
4834.png,7
4835.png,7
4836.png,7
4837.png,7
4838.png,7
4839.png,7
4840.png,7
4841.png,7
4842.png,7
4843.png,7
4844.png,7
4845.png,7
4846.png,7
4847.png,7
4848.png,7
4849.png,7
4850.png,7
4851.png,7
4852.png,7
4853.png,7
4854.png,7
4855.png,7
4856.png,7
4857.png,7
4858.png,7
4859.png,7
4860.png,7
4861.png,7
4862.png,7
4863.png,7
4864.png,7
4865.png,7
4866.png,7
4867.png,7
4868.png,7
4869.png,7
4870.png,7
4871.png,7
4872.png,7
4873.png,7
4874.png,7
4875.png,7
4876.png,7
4877.png,7
4878.png,7
4879.png,7
4880.png,7
4881.png,7
4882.png,7
4883.png,7
4884.png,7
4885.png,7
4886.png,7
4887.png,7
4888.png,7
4889.png,7
4890.png,7
4891.png,7
4892.png,7
4893.png,7
4894.png,7
4895.png,7
4896.png,7
4897.png,7
4898.png,7
4899.png,7
4900.png,7
4901.png,7
4902.png,7
4903.png,7
4904.png,7
4905.png,7
4906.png,7
4907.png,7
4908.png,7
4909.png,7
4910.png,7
4911.png,7
4912.png,7
4913.png,7
4914.png,7
4915.png,7
4916.png,7
4917.png,7
4918.png,7
4919.png,7
4920.png,7
4921.png,7
4922.png,7
4923.png,7
4924.png,7
4925.png,7
4926.png,7
4927.png,7
4928.png,7
4929.png,7
4930.png,7
4931.png,7
4932.png,7
4933.png,7
4934.png,7
4935.png,7
4936.png,7
4937.png,7
4938.png,7
4939.png,7
4940.png,7
4941.png,7
4942.png,7
4943.png,7
4944.png,7
4945.png,7
4946.png,7
4947.png,7
4948.png,7
4949.png,7
4950.png,7
4951.png,7
4952.png,7
4953.png,7
4954.png,7
4955.png,7
4956.png,7
4957.png,7
4958.png,7
4959.png,7
4960.png,7
4961.png,7
4962.png,7
4963.png,7
4964.png,7
4965.png,7
4966.png,7
4967.png,7
4968.png,7
4969.png,7
4970.png,7
4971.png,7
4972.png,7
4973.png,7
4974.png,7
4975.png,7
4976.png,7
4977.png,7
4978.png,7
4979.png,7
4980.png,7
4981.png,7
4982.png,7
4983.png,7
4984.png,7
4985.png,7
4986.png,7
4987.png,7
4988.png,7
4989.png,7
4990.png,7
4991.png,7
4992.png,7
4993.png,7
4994.png,7
4995.png,7
4996.png,7
4997.png,7
4998.png,7
4999.png,7
5000.png,7
5001.png,7
5002.png,7
5003.png,7
5004.png,7
5005.png,7
5006.png,7
5007.png,7
5008.png,7
5009.png,7
5010.png,7
5011.png,7
5012.png,7
5013.png,7
5014.png,7
5015.png,7
5016.png,7
5017.png,7
5018.png,7
5019.png,7
5020.png,7
5021.png,7
5022.png,7
5023.png,7
5024.png,7
5025.png,7
5026.png,7
5027.png,7
5028.png,7
5029.png,7
5030.png,7
5031.png,7
5032.png,7
5033.png,7
5034.png,7
5035.png,7
5036.png,7
5037.png,7
5038.png,7
5039.png,7
5040.png,7
5041.png,7
5042.png,7
5043.png,7
5044.png,7
5045.png,7
5046.png,7
5047.png,7
5048.png,7
5049.png,7
5050.png,7
5051.png,7
5052.png,7
5053.png,7
5054.png,7
5055.png,7
5056.png,7
5057.png,7
5058.png,7
5059.png,7
5060.png,7
5061.png,7
5062.png,7
5063.png,7
5064.png,7
5065.png,7
5066.png,7
5067.png,7
5068.png,7
5069.png,7
5070.png,7
5071.png,7
5072.png,7
5073.png,7
5074.png,7
5075.png,7
5076.png,7
5077.png,7
5078.png,7
5079.png,7
5080.png,7
5081.png,7
5082.png,7
5083.png,7
5084.png,7
5085.png,7
5086.png,7
5087.png,7
5088.png,7
5089.png,7
5090.png,7
5091.png,7
5092.png,7
5093.png,7
5094.png,7
5095.png,7
5096.png,7
5097.png,7
5098.png,7
5099.png,7
5100.png,7
5101.png,7
5102.png,7
5103.png,7
5104.png,7
5105.png,7
5106.png,7
5107.png,7
5108.png,7
5109.png,7
5110.png,7
5111.png,7
5112.png,7
5113.png,7
5114.png,7
5115.png,7
5116.png,7
5117.png,7
5118.png,7
5119.png,7
5120.png,7
5121.png,7
5122.png,7
5123.png,7
5124.png,7
5125.png,7
5126.png,7
5127.png,7
5128.png,7
5129.png,7
5130.png,7
5131.png,7
5132.png,7
5133.png,7
5134.png,7
5135.png,7
5136.png,7
5137.png,7
5138.png,7
5139.png,7
5140.png,7
5141.png,7
5142.png,7
5143.png,7
5144.png,7
5145.png,7
5146.png,7
5147.png,7
5148.png,7
5149.png,7
5150.png,7
5151.png,7
5152.png,7
5153.png,7
5154.png,7
5155.png,7
5156.png,7
5157.png,7
5158.png,7
5159.png,7
5160.png,7
5161.png,7
5162.png,7
5163.png,7
5164.png,7
5165.png,7
5166.png,7
5167.png,7
5168.png,7
5169.png,7
5170.png,7
5171.png,7
5172.png,7
5173.png,7
5174.png,7
5175.png,7
5176.png,7
5177.png,7
5178.png,7
5179.png,7
5180.png,7
5181.png,7
5182.png,7
5183.png,7
5184.png,7
5185.png,7
5186.png,7
5187.png,7
5188.png,7
5189.png,7
5190.png,7
5191.png,7
5192.png,7
5193.png,7
5194.png,7
5195.png,7
5196.png,7
5197.png,7
5198.png,7
5199.png,7
5200.png,7
5201.png,7
5202.png,7
5203.png,7
5204.png,7
5205.png,7
5206.png,7
5207.png,7
5208.png,7
5209.png,7
5210.png,7
5211.png,7
5212.png,7
5213.png,7
5214.png,7
5215.png,7
5216.png,7
5217.png,7
5218.png,7
5219.png,7
5220.png,7
5221.png,7
5222.png,7
5223.png,7
5224.png,7
5225.png,7
5226.png,7
5227.png,7
5228.png,7
5229.png,7
5230.png,7
5231.png,7
5232.png,7
5233.png,7
5234.png,7
5235.png,7
5236.png,7
5237.png,7
5238.png,7
5239.png,7
5240.png,7
5241.png,7
5242.png,7
5243.png,7
5244.png,7
5245.png,7
5246.png,7
5247.png,7
5248.png,7
5249.png,7
5250.png,7
5251.png,7
5252.png,7
5253.png,7
5254.png,7
5255.png,7
5256.png,7
5257.png,7
5258.png,7
5259.png,7
5260.png,7
5261.png,7
5262.png,7
5263.png,7
5264.png,7
5265.png,7
5266.png,7
5267.png,7
5268.png,7
5269.png,7
5270.png,7
5271.png,7
5272.png,7
5273.png,7
5274.png,7
5275.png,7
5276.png,7
5277.png,7
5278.png,7
5279.png,7
5280.png,7
5281.png,7
5282.png,7
5283.png,7
5284.png,7
5285.png,7
5286.png,7
